…
Години и посетители #2
========================================================
class: small-code

```
# A tibble: 113 x 2
    year visitors_per_year
   <dbl>             <dbl>
 1  1904            120690
 2  1905            140954
 3  1906             30569
 4  1907             32935
 5  1908             42768
 6  1909             60899
 7  1910            173416
 8  1911            193757
 9  1912            197884
10  1913            216403
# … with 103 more rows
```
…
pv2_top10 <- filter(.data = pv2, unit_name %in% top10$unit_name)

pv2_top10
```

Најдобрите 10 паркови #2
========================================================
class: small-code

```
# A tibble: 651 x 4
    year unit_name                           visitors year_rank
   <dbl> <chr>                                  <dbl>     <dbl>
 1  1931 Great Smoky Mountains National Park   154000       8  
 2  1932 Colonial National Historical Park     400000       2  
 3  1932 Great Smoky Mountains National Park   300000       3  
 4  1933 Great Smoky Mountains National Park   375000       1  
 5  1933 Colonial National Historical Park      66418      14  
 6  1934 Great Smoky Mountains National Park   420000       2  
 7  1934 Colonial National Historical Park      58303      25  
 8  1935 Great Smoky Mountains National Park   500000       2  
 9  1935 Colonial National Historical Park     367172       5  
10  1936 Lincoln Memorial                      857441       1.5
# … with 641 more rows
```
…
